…
``` r
# 20 year average across all watersheds
# percents 
sim_spawners |>
  group_by(watershed) |>
  summarise(
    mean_adult_return_to_origin = mean(metric, na.rm = TRUE) * 100,
    median_adult_return_to_origin = median(metric, na.rm = TRUE) * 100
  )
```

    ## # A tibble: 31 × 3
    ##    watershed       mean_adult_return_to_origin median_adult_return_to_origin
    ##    <chr>                                 <dbl>                         <dbl>
    ##  1 American River                       16.6                          15.2  
    ##  2 Antelope Creek                      133.                           63.7  
    ##  3 Battle Creek                          0.517                         0.384
    ##  4 Bear Creek                          142.                           82.6  
    ##  5 Bear River                          134.                           92.0  
    ##  6 Big Chico Creek                     140.                           69.6  
    ##  7 Butte Creek                          86.3                          53.5  
    ##  8 Calaveras River                     130.                           73.4  
    ##  9 Clear Creek                          51.2                          26.7  
    ## 10 Cosumnes River                      112.                           81.3  
    ## # … with 21 more rows
…
juveniles |>
  group_by(watershed) |>
  summarise(avg_juvenile_metric_perc = mean(metric_rev, na.rm = TRUE) * 100) |>
  arrange(-avg_juvenile_metric_perc)
```

    ## # A tibble: 31 × 2
    ##    watershed        avg_juvenile_metric_perc
    ##    <chr>                               <dbl>
    ##  1 Elder Creek                         0.477
    ##  2 Stony Creek                         0.397
    ##  3 Thomes Creek                        0.382
    ##  4 Cottonwood Creek                    0.343
    ##  5 Bear Creek                          0.340
    ##  6 Big Chico Creek                     0.320
    ##  7 Calaveras River                     0.306
    ##  8 Paynes Creek                        0.306
    ##  9 Bear River                          0.304
    ## 10 Antelope Creek                      0.288
    ## # … with 21 more rows
…
